<svg xmlns="http://www.w3.org/2000/svg" width="22.427" height="16.945" viewBox="0 0 22.427 16.945">
  <path id="Path_2131_1_" d="M.139,1.613,10.859,9.9l10.3-8.211m.045-.018a2.234,2.234,0,0,1,.018.245h0v12.4A1.845,1.845,0,0,1,19.3,16.08H1.96A1.851,1.851,0,0,1,.03,14.319h0V1.911A1.845,1.845,0,0,1,1.96.149H19.3A1.887,1.887,0,0,1,21.189,1.56m0,0a.43.43,0,0,1,.018.114m-.961,14.047-7.34-7.343m-4.359,0L1.126,15.8" transform="translate(0.563 0.356)" fill="none" stroke="#100d4c" stroke-linecap="round" stroke-linejoin="round" stroke-miterlimit="10" stroke-width="1"/>
</svg>
