<svg xmlns="http://www.w3.org/2000/svg" width="18.216" height="18.211" viewBox="0 0 18.216 18.211">
  <g id="noun_Telephone_1501723" transform="translate(0.519 0.49)">
    <g id="Group_23631" data-name="Group 23631" transform="translate(0 0)">
      <path id="Path_16352" data-name="Path 16352" d="M11.44,960.41c.3.157.493.565.786,1.248s.667,1.646,1.239,2.925a.689.689,0,0,1-.166.892,10.445,10.445,0,0,1-.824.669h0a.236.236,0,0,0-.075.165.993.993,0,0,0,.033.339,4.455,4.455,0,0,0,.473,1.072,16.611,16.611,0,0,0,2.291,2.968,13.958,13.958,0,0,0,2.828,2.142,3.316,3.316,0,0,0,.963.367c.245.039.38,0,.445-.093h0a5.821,5.821,0,0,1,.661-.837,1.055,1.055,0,0,1,1.221-.161c1.266.6,1.931.9,2.617,1.237.624.336,1.433.536,1.241,1.277a2.2,2.2,0,0,1-.413.542c-.391.409-1.012.948-1.847,1.74h0a3.759,3.759,0,0,1-3.389.508c-1.742-.388-4.084-1.583-7-4.352l0,0c-2.775-2.916-3.972-5.255-4.361-6.994a3.742,3.742,0,0,1,.508-3.381h0c.794-.835,1.334-1.455,1.744-1.846a2.214,2.214,0,0,1,.543-.413.6.6,0,0,1,.492-.01Zm-.39.226a2.07,2.07,0,0,0-.48.369c-.394.375-.938,1-1.735,1.837h0a3.546,3.546,0,0,0-.448,3.165c.376,1.682,1.545,3.986,4.3,6.88,2.9,2.747,5.205,3.915,6.89,4.29a3.562,3.562,0,0,0,3.172-.448h0c.839-.8,1.464-1.338,1.839-1.731a2.067,2.067,0,0,0,.37-.479c.135-.542-.822-.828-1.119-.956-1.108-.542-1.782-.867-2.651-1.255a.753.753,0,0,0-.93.133,5.935,5.935,0,0,0-.631.8h0a.666.666,0,0,1-.676.189,3.493,3.493,0,0,1-1.037-.392,14.145,14.145,0,0,1-2.882-2.182l0,0a16.806,16.806,0,0,1-2.327-3.016,4.621,4.621,0,0,1-.5-1.134,1.2,1.2,0,0,1-.038-.425.482.482,0,0,1,.159-.318h0c.26-.218.6-.435.806-.653.255-.25.234-.344.124-.619-.576-1.29-.954-2.263-1.244-2.938a2.679,2.679,0,0,0-.678-1.131.341.341,0,0,0-.279.014Z" transform="translate(-8 -960.362)" fill="#100d4c" stroke="#100d4c" stroke-width="1" fill-rule="evenodd"/>
    </g>
  </g>
</svg>
