<svg xmlns="http://www.w3.org/2000/svg" width="23.5" height="22.186" viewBox="0 0 23.5 22.186">
  <g id="Group_24089" data-name="Group 24089" transform="translate(-0.25 -1.25)">
    <path id="Path_2239" data-name="Path 2239" d="M4.871,12.243H6.357a.371.371,0,1,0,0-.743H4.871a.371.371,0,1,0,0,.743Z" transform="translate(-1.029 -3.455)" fill="#100d4c" stroke="#100d4c" stroke-linecap="square" stroke-width="0.5"/>
    <path id="Path_2240" data-name="Path 2240" d="M4.871,16.243H6.357a.371.371,0,1,0,0-.743H4.871a.371.371,0,1,0,0,.743Z" transform="translate(-1.029 -4.838)" fill="#100d4c" stroke="#100d4c" stroke-linecap="square" stroke-width="0.5"/>
    <path id="Path_2241" data-name="Path 2241" d="M4.871,20.243H6.357a.371.371,0,1,0,0-.743H4.871a.371.371,0,1,0,0,.743Z" transform="translate(-1.029 -6.22)" fill="#100d4c" stroke="#100d4c" stroke-linecap="square" stroke-width="0.5"/>
    <path id="Path_2242" data-name="Path 2242" d="M4.871,24.243H6.357a.371.371,0,1,0,0-.743H4.871a.371.371,0,1,0,0,.743Z" transform="translate(-1.029 -7.602)" fill="#100d4c" stroke="#100d4c" stroke-linecap="square" stroke-width="0.5"/>
    <path id="Path_2243" data-name="Path 2243" d="M4.871,28.243H6.357a.371.371,0,1,0,0-.743H4.871a.371.371,0,1,0,0,.743Z" transform="translate(-1.029 -8.984)" fill="#100d4c" stroke="#100d4c" stroke-linecap="square" stroke-width="0.5"/>
    <path id="Path_2244" data-name="Path 2244" d="M23.171,6.757H18.9V1.829a.325.325,0,0,0-.329-.329H5.429a.325.325,0,0,0-.329.329V6.757H.829A.325.325,0,0,0,.5,7.086V22.857a.325.325,0,0,0,.329.329H23.171a.325.325,0,0,0,.329-.329V7.086A.325.325,0,0,0,23.171,6.757ZM7.071,22.529H1.157V7.414H7.071Zm5.914,0H11.014V19.243h1.971ZM16.271,7.086V22.529H13.643V18.914a.325.325,0,0,0-.329-.329H10.686a.325.325,0,0,0-.329.329v3.614H7.729V7.086A.325.325,0,0,0,7.4,6.757H5.757v-4.6H18.243v4.6H16.6A.325.325,0,0,0,16.271,7.086Zm6.571,15.443H16.929V7.414h5.914Z" transform="translate(0 0)" fill="#100d4c" stroke="#100d4c" stroke-linecap="square" stroke-width="0.5"/>
    <path id="Path_2245" data-name="Path 2245" d="M28.871,12.243h1.486a.371.371,0,0,0,0-.743H28.871a.371.371,0,1,0,0,.743Z" transform="translate(-10.2 -3.455)" fill="#100d4c" stroke="#100d4c" stroke-linecap="square" stroke-width="0.5"/>
    <path id="Path_2246" data-name="Path 2246" d="M28.871,16.243h1.486a.371.371,0,0,0,0-.743H28.871a.371.371,0,1,0,0,.743Z" transform="translate(-10.2 -4.838)" fill="#100d4c" stroke="#100d4c" stroke-linecap="square" stroke-width="0.5"/>
    <path id="Path_2247" data-name="Path 2247" d="M28.871,20.243h1.486a.371.371,0,0,0,0-.743H28.871a.371.371,0,1,0,0,.743Z" transform="translate(-10.2 -6.22)" fill="#100d4c" stroke="#100d4c" stroke-linecap="square" stroke-width="0.5"/>
    <path id="Path_2248" data-name="Path 2248" d="M28.871,24.243h1.486a.371.371,0,0,0,0-.743H28.871a.371.371,0,1,0,0,.743Z" transform="translate(-10.2 -7.602)" fill="#100d4c" stroke="#100d4c" stroke-linecap="square" stroke-width="0.5"/>
    <path id="Path_2249" data-name="Path 2249" d="M28.871,28.243h1.486a.371.371,0,0,0,0-.743H28.871a.371.371,0,1,0,0,.743Z" transform="translate(-10.2 -8.984)" fill="#100d4c" stroke="#100d4c" stroke-linecap="square" stroke-width="0.5"/>
    <path id="Path_2250" data-name="Path 2250" d="M18.843,5.5H15.871a.371.371,0,1,0,0,.743h2.971a.371.371,0,1,0,0-.743Z" transform="translate(-5.357 -1.029)" fill="#100d4c" stroke="#100d4c" stroke-linecap="square" stroke-width="0.5"/>
    <path id="Path_2251" data-name="Path 2251" d="M18.843,9.5H15.871a.371.371,0,1,0,0,.743h2.971a.371.371,0,1,0,0-.743Z" transform="translate(-5.357 -2.764)" fill="#100d4c" stroke="#100d4c" stroke-linecap="square" stroke-width="0.5"/>
    <path id="Path_2252" data-name="Path 2252" d="M18.843,13.5H15.871a.371.371,0,1,0,0,.743h2.971a.371.371,0,1,0,0-.743Z" transform="translate(-5.357 -4.146)" fill="#100d4c" stroke="#100d4c" stroke-linecap="square" stroke-width="0.5"/>
    <path id="Path_2253" data-name="Path 2253" d="M18.843,17.5H15.871a.371.371,0,1,0,0,.743h2.971a.371.371,0,1,0,0-.743Z" transform="translate(-5.357 -5.529)" fill="#100d4c" stroke="#100d4c" stroke-linecap="square" stroke-width="0.5"/>
    <path id="Path_2254" data-name="Path 2254" d="M18.843,21.5H15.871a.371.371,0,1,0,0,.743h2.971a.371.371,0,1,0,0-.743Z" transform="translate(-5.357 -6.911)" fill="#100d4c" stroke="#100d4c" stroke-linecap="square" stroke-width="0.5"/>
  </g>
</svg>
